Tutorial
…
profile_motus_2612_pe_raw <- read_tsv("taxpasta-tutorial/2612_pe-ERR5766176-db_mOTU.out", skip = 2)

Rows: 33571 Columns: 3
── Column specification ────────────────────────────────────────────────────────
Delimiter: "\t"
chr (1): #consensus_taxonomy
dbl (2): NCBI_tax_id, 2612_pe-ERR5766176-db_mOTU

ℹ Use `spec()` to retrieve the full column specification for this data.
ℹ Specify the column types or set `show_col_types = FALSE` to quiet this message.

profile_motus_2612_pe_raw

# A tibble: 33,571 × 3
   `#consensus_taxonomy`                            NCBI_tax_id `2612_pe-ERR57…`
   <chr>                                                  <dbl>            <dbl>
 1 Leptospira alexanderi [ref_mOTU_v3_00001]             100053                0
 2 Leptospira weilii [ref_mOTU_v3_00002]                  28184                0
 3 Chryseobacterium sp. [ref_mOTU_v3_00004]                  NA                0
 4 Chryseobacterium gallinarum [ref_mOTU_v3_00005]      1324352                0
 5 Chryseobacterium indologenes [ref_mOTU_v3_00006]         253                0
 6 Chryseobacterium artocarpi/ureilyticum [ref_mOT…          NA                0
 7 Chryseobacterium jejuense [ref_mOTU_v3_00008]         445960                0
 8 Chryseobacterium sp. G972 [ref_mOTU_v3_00009]        1805473                0
 9 Chryseobacterium contaminans [ref_mOTU_v3_00010]     1423959                0
10 Chryseobacterium indologenes [ref_mOTU_v3_00011]         253                0
# … with 33,561 more rows
…
profile_kraken2_2612_pe_raw <- read_tsv("taxpasta-tutorial/2612_pe-ERR5766176-db1.kraken2.report.txt")

New names:
Rows: 43 Columns: 6
── Column specification
──────────────────────────────────────────────────────── Delimiter: "\t" chr
(2): U, unclassified dbl (4): 99.97, 627680...2, 627680...3, 0
ℹ Use `spec()` to retrieve the full column specification for this data. ℹ
Specify the column types or set `show_col_types = FALSE` to quiet this message.
• `627680` -> `627680...2`
• `627680` -> `627680...3`

profile_kraken2_2612_pe_raw

# A tibble: 43 × 6
   `99.97` `627680...2` `627680...3` U        `0` unclassified      
     <dbl>        <dbl>        <dbl> <chr>  <dbl> <chr>             
 1    0.03          168            0 R          1 root              
 2    0.03          168            0 R1    131567 cellular organisms
 3    0.03          168            0 D       2759 Eukaryota         
 4    0.03          168            0 D1     33154 Opisthokonta      
 5    0.02          152            0 K      33208 Metazoa           
 6    0.02          152            0 K1      6072 Eumetazoa         
 7    0.02          152            0 K2     33213 Bilateria         
 8    0.02          152            0 K3     33511 Deuterostomia     
 9    0.02          152            0 P       7711 Chordata          
10    0.02          152            0 P1     89593 Craniata          
# … with 33 more rows
…
profile_kraken2_2612_pe_raw <- read_tsv("taxpasta-tutorial/2612_pe-ERR5766176-db1.kraken2.report.txt", col_names = c("percent", "clade_assigned_reads", "direct_assigned_reads", "taxonomy_lvl", "taxonomy_id", "name"))

Rows: 44 Columns: 6
── Column specification ────────────────────────────────────────────────────────
Delimiter: "\t"
chr (2): taxonomy_lvl, name
dbl (4): percent, clade_assigned_reads, direct_assigned_reads, taxonomy_id

ℹ Use `spec()` to retrieve the full column specification for this data.
ℹ Specify the column types or set `show_col_types = FALSE` to quiet this message.

profile_kraken2_2612_pe_raw

# A tibble: 44 × 6
   percent clade_assigned_reads direct_assigned_… taxonomy_lvl taxonomy_id name 
     <dbl>                <dbl>             <dbl> <chr>              <dbl> <chr>
 1  100.                 627680            627680 U                      0 uncl…
 2    0.03                  168                 0 R                      1 root 
 3    0.03                  168                 0 R1                131567 cell…
 4    0.03                  168                 0 D                   2759 Euka…
 5    0.03                  168                 0 D1                 33154 Opis…
 6    0.02                  152                 0 K                  33208 Meta…
 7    0.02                  152                 0 K1                  6072 Eume…
 8    0.02                  152                 0 K2                 33213 Bila…
 9    0.02                  152                 0 K3                 33511 Deut…
10    0.02                  152                 0 P                   7711 Chor…
# … with 34 more rows
…
    intersect, setdiff, setequal, union

full_join(profile_motus_2612_pe_raw, profile_kraken2_2612_pe_raw)

Error in `full_join()`:
! `by` must be supplied when `x` and `y` have no common variables.
ℹ use by = character()` to perform a cross-join.

The error by must be supplied when x and y have no common variables. is because the column names are not the same between the two tables for the different classifer’s outputs.

raw_merged_table <- full_join(profile_motus_2612_pe_raw, profile_kraken2_2612_pe_raw, by = c("NCBI_tax_id" = "taxonomy_id"))
raw_merged_table

# A tibble: 33,615 × 8
   `#consensus_taxonomy`   NCBI_tax_id `2612_pe-ERR57…` percent clade_assigned_…
   <chr>                         <dbl>            <dbl>   <dbl>            <dbl>
 1 Leptospira alexanderi …      100053                0      NA               NA
 2 Leptospira weilii [ref…       28184                0      NA               NA
 3 Chryseobacterium sp. […          NA                0      NA               NA
 4 Chryseobacterium galli…     1324352                0      NA               NA
 5 Chryseobacterium indol…         253                0      NA               NA
 6 Chryseobacterium artoc…          NA                0      NA               NA
 7 Chryseobacterium jejue…      445960                0      NA               NA
 8 Chryseobacterium sp. G…     1805473                0      NA               NA
 9 Chryseobacterium conta…     1423959                0      NA               NA
10 Chryseobacterium indol…         253                0      NA               NA
# … with 33,605 more rows, and 3 more variables: direct_assigned_reads <dbl>,
#   taxonomy_lvl <chr>, name <chr>
…
Now lets try to load the taxpasta standardised Kraken2 result into R again…

profile_kraken2_2612_pe_standardised <- read_tsv("taxpasta-tutorial/2612_pe-ERR5766176-db1_kraken2.tsv")

Rows: 44 Columns: 2
── Column specification ────────────────────────────────────────────────────────
Delimiter: "\t"
dbl (2): taxonomy_id, count

ℹ Use `spec()` to retrieve the full column specification for this data.
ℹ Specify the column types or set `show_col_types = FALSE` to quiet this message.

profile_kraken2_2612_pe_standardised

# A tibble: 44 × 2
   taxonomy_id  count
         <dbl>  <dbl>
 1           0 627680
 2           1      0
 3      131567      0
 4        2759      0
 5       33154      0
 6       33208      0
 7        6072      0
 8       33213      0
 9       33511      0
10        7711      0
# … with 34 more rows
…
profile_motus_standardised <- read_tsv("taxpasta-tutorial/dbMOTUs_motus.tsv")

Rows: 37 Columns: 4
── Column specification ────────────────────────────────────────────────────────
Delimiter: "\t"
chr (1): name
dbl (3): taxonomy_id, 2612_pe-ERR5766176-db_mOTU, 2612_se-ERR5766180-db_mOTU

ℹ Use `spec()` to retrieve the full column specification for this data.
ℹ Specify the column types or set `show_col_types = FALSE` to quiet this message.

profile_motus_standardised

# A tibble: 37 × 4
   taxonomy_id `2612_pe-ERR5766176-db_mOTU` `2612_se-ERR5766180-db_mOTU` name   
         <dbl>                        <dbl>                        <dbl> <chr>  
 1       40518                           20                            2 Rumino…
 2      216816                            1                            0 Bifido…
 3        1680                            6                            1 Bifido…
 4     1262820                            1                            0 Clostr…
 5       74426                            2                            1 Collin…
 6     1907654                            1                            0 Collin…
 7     1852370                            3                            1 Prevot…
 8       39491                            3                            0 [Eubac…
 9       33039                            2                            0 [Rumin…
10       39486                            1                            0 Dorea …
# … with 27 more rows
You can see here now we have one taxonomy_id column, and two columns each referring to each of the samples - and all without having to spend time playing with different parameters and arguments for loading the files.

By default taxpasta uses taxonomy IDs to merge tables. If you’re interested in having human-readable taxon names see below.

Comparing standardised output of different classifiers

We can also now more easily merge the tables across the two profilers, again with the join function - but without any extra specifications, as all the standardised taxonomic tables now share common column header names.

standardised_merged_table <- full_join(profile_motus_standardised, profile_kraken2_2612_pe_standardised)

Joining, by = "taxonomy_id"

standardised_merged_table

# A tibble: 80 × 5
   taxonomy_id `2612_pe-ERR5766176-db_mOTU` `2612_se-ERR5766180-db…` name  count
         <dbl>                        <dbl>                    <dbl> <chr> <dbl>
 1       40518                           20                        2 Rumi…    NA
 2      216816                            1                        0 Bifi…    NA
 3        1680                            6                        1 Bifi…    NA
 4     1262820                            1                        0 Clos…    NA
 5       74426                            2                        1 Coll…    NA
 6     1907654                            1                        0 Coll…    NA
 7     1852370                            3                        1 Prev…    NA
 8       39491                            3                        0 [Eub…    NA
 9       33039                            2                        0 [Rum…    NA
10       39486                            1                        0 Dore…    NA
# … with 70 more rows
…
